../Core/Src/stm32f7xx_it.c:71:6:NMI_Handler	4	static
../Core/Src/stm32f7xx_it.c:86:6:HardFault_Handler	4	static
../Core/Src/stm32f7xx_it.c:101:6:MemManage_Handler	4	static
../Core/Src/stm32f7xx_it.c:116:6:BusFault_Handler	4	static
../Core/Src/stm32f7xx_it.c:131:6:UsageFault_Handler	4	static
../Core/Src/stm32f7xx_it.c:146:6:DebugMon_Handler	4	static
../Core/Src/stm32f7xx_it.c:166:6:I2C1_EV_IRQHandler	8	static
../Core/Src/stm32f7xx_it.c:180:6:TIM6_DAC_IRQHandler	8	static
