<?xml version="1.0" encoding="UTF-8"?>
<session version="1.0">
<refactoring comment="Rename resource &apos;STM32F765 Blink/Core/Inc/sensors_emulator.h&apos; to &apos;sensors_emulator_interface.h&apos;" description="Rename resource &apos;sensors_emulator.h&apos;" flags="7" id="org.eclipse.ltk.core.refactoring.rename.resource" input="Core/Inc/sensors_emulator.h" name="sensors_emulator_interface.h" stamp="1716800620014" updateReferences="true"/>
</session>