<?xml version="1.0" encoding="UTF-8"?>
<session version="1.0">
<refactoring comment="Delete resource &apos;NUCLEOF303ZET6 Operator&apos;" deleteContents="false" description="Delete resource &apos;NUCLEOF303ZET6 Operator&apos;" element1="/NUCLEOF303ZET6 Operator" flags="7" id="org.eclipse.ltk.core.refactoring.delete.resources" resources="1" stamp="1716536162943"/>
</session>